1 10 20
100 200 125
201 210 89
900 1000 174
68 70 15
32 486 144
40 221 125
9 723183 509
63 2008 182
6 851 171
46 213 125
25 541058 470
74 220 125
6 42 112
14 389 144
34 750256 509
60 359 144
89 8683 262
1 387 144
21 623 144
49 8234 262
88 649 145
2 90 116
42 31 110
56 2667 209
41 885 179
45 294713 443
74 1705 182
5183 710111 509
51 881444 525
43 871 179
3000 599032 470
78 892884 525
40234 16550 324
24 748374 509
3432 109175 354
3544 958306 525
4098 90637 351
5 399134 443
99 811851 509
69 98779 351
5034 284747 443
13 143191 375
20343 787665 509
27 553167 470
335 422105 449
35 14717 276
4353 531633 470
67 129285 354
2334 170868 383
55 384075 443
603 835414 509
17 165359 383
2535 985143 525
7 526994 470
94 821704 509
73348 118596 354
69 476768 449
3834 17701 279
61 31479 308
33 54 113
92 200204 383
93 577 144
33 704 171
88 875 179
13 209334 383
97 726 171
20 4 21
10 4 20
41 70 113
86 23 116
1324 545175 470
89 897438 525
4 870 171
74 467 144
4 381549 443
26 493632 449
3335 900613 525
3356 34189 308
32 490304 449
45 584334 470
26646 339380 443
74 414648 449
59345 592439 470
19 989685 525
54 352 144
34343 876085 525
24 391558 443
23 341706 443
75342 207878 383
28 490468 449
83345 404242 443
35 810691 509
53 554323 470
14 40940 324
90 85190 351
8685 767422 509
9 680370 509
90 234359 443
7634 421412 449
77 12670 268
9244 665403 509
33 414082 449
56 232308 443
6353 370498 443
22 201558 383
92 425219 449
99 226 125
82 98398 351
63459 829103 509
89 651981 509
80 7367 262
81 613729 470
46 214450 383
17 13 18
53 517929 470
14 419 144
4 557872 470
25 926941 525
20 306 128
4386 197642 383
74 149788 375
25 443 144
77 902 179
5 420 144
1 990996 525
